{
  "zipcodes": [
    15177, 32453, 36589, 36612, 36954, 36867, 36690, 36937, 36888, 36555, 36141, 36979, 36629, 36685, 36520, 36526, 36854, 36190, 36913, 36990, 36157, 36516, 36418, 36720, 36429, 36528, 36391, 36000, 36511, 36945, 36812, 36859, 36458, 36419, 36885, 36669, 36840, 36791, 36829, 36628, 36428, 36350, 36519, 36546, 36853, 36512, 36585, 36611, 36691, 36430, 36684, 36677, 36865, 36655, 36912, 36989, 36340, 36915, 36613, 36164, 36861, 36711, 36992, 36995, 36192, 36599, 36584, 36892, 36794, 36412, 36415, 36598, 36510, 36308, 36614, 36300, 36729, 36949, 36988, 36682, 36140, 36618, 36570, 36826, 36683, 36435, 36878, 36837, 36158, 36142, 36309, 36636, 36749, 36911, 36191, 36527, 36580, 36389, 36448, 36307, 36659, 36517, 36688, 36518, 36154, 36842, 36966, 36858, 36525, 36378, 36639, 36316, 36524, 36692, 36658, 36828, 36930, 36939, 36869, 36779, 36634, 36143, 36436, 36813, 36370, 36914, 36514, 36650, 36820, 36721, 36610, 36957, 36770, 36845, 36587, 36539, 36630, 36360, 36647, 36873, 36110, 36596, 36788, 36860, 36940, 36390, 36411, 36880, 36969, 36856, 36910, 36582, 36627, 36640, 36646, 36475, 36416, 36876, 36156, 36450, 36938, 36558, 36117, 36116, 36789, 36617, 36417, 36100, 36817, 36438, 36678, 36139, 36447, 36687, 36875, 36152, 36579, 36693, 36456, 36827, 36993, 36320, 36414, 36947, 36967, 36379, 36619, 36545, 36457, 36668, 36119, 36955, 36150, 36886, 36151, 36638, 36633, 36839, 36420, 36863, 36590, 36893, 36670, 36686, 36649, 36388, 36515, 36559, 36760, 36471, 36841, 36838, 36547, 36470, 36679, 36851, 36730, 36680, 36713, 36681, 36537, 36548, 36792, 36490, 36583, 36600, 36750, 36958, 36550, 36556, 36455, 36847, 36866, 36118, 36889, 36946, 36615, 36380, 36843, 36980, 36780, 36868, 36538, 36529, 36626, 36500, 36830, 36657, 36544, 36852, 36635, 36449, 36459, 36588, 36855, 36153, 36887, 36567, 36714, 36900, 36920, 36959, 36689, 36557, 36877, 36637, 36950, 36870, 36890, 36413, 36437, 36814, 36440, 36410, 36846, 36862, 36864, 36586, 36393, 36616, 36472, 36568, 36715, 36194, 36884, 36895, 36474, 36739, 36163, 36543, 36400, 36970, 36492, 36712, 36491, 36857, 36818, 36800, 36542, 36710, 36493, 36891, 36530, 36652, 36581, 36121, 36656, 36446, 36654, 36667, 36569, 36748, 36676, 36660, 36872, 36653, 36960, 36816, 36835, 36740, 36494, 36540, 36620, 36790, 36560, 36460, 36746, 36120, 36597, 36648, 36874, 36991, 36811, 36849, 36675, 36700, 36883, 36645, 36193, 36848, 36747, 36815, 36879, 36810, 36836, 36968, 36844, 32633, 32695, 32615, 32150, 32779, 32764, 32980, 32679, 32690, 32790, 32520, 32228, 32433, 32213, 32212, 32817, 32235, 32816, 32897, 32172, 32668, 32870, 32372, 32768, 32164, 32678, 32769, 32789, 32794, 32815, 32711, 32236, 32425, 32141, 32880, 32573, 32101, 32136, 32814, 32634, 32515, 32667, 32920, 32641, 32449, 32766, 32152, 32514, 32618, 32137, 32622, 32702, 32430, 32516, 32813, 32160, 32849, 32211, 32652, 32812, 32811, 32348, 32539, 32705, 32990, 32112, 32138, 32765, 32770, 32314, 32660, 32704, 32448, 32940, 32890, 32636, 32226, 32691, 32664, 32654, 32170, 32151, 32793, 32825, 32455, 32120, 32526, 32879, 32140, 32838, 32693, 32500, 32315, 32621, 32557, 32139, 32161, 32574, 32417, 32616, 32617, 32708, 32915, 32860, 32981, 32512, 32680, 32229, 32655, 32456, 32510, 32821, 32820, 32850, 32632, 32950, 32840, 32369, 32701, 32848, 32895, 32450, 32537, 32411, 32300, 32534, 32740, 32847, 32898, 32788, 32311, 32899, 32530, 32545, 32748, 32103, 32420, 32419, 32336, 32431, 32525, 32900, 32562, 32970, 32153, 32784, 32823, 32631, 32792, 32577, 32373, 32100, 32523, 32785, 32613, 32563, 32868, 32786, 32651, 32521, 32536, 32846, 32375, 32828, 32839, 32778, 32780, 32428, 32600, 32710, 32548, 32669, 32554, 32901, 32648, 32415, 32774, 32626, 32549, 32135, 32338, 32368, 32960, 32357, 32413, 32810, 32692, 32547, 32824, 32892, 32689, 32337, 32635, 32650, 32356, 32751, 32366, 32730, 32370, 32644, 32787, 32696, 32558, 32610, 32625, 32760, 32706, 32318, 32111, 32749, 32130, 32004, 32800, 32454, 32747, 32410, 32620, 32782, 32750, 32666, 32001, 32910, 32551, 32340, 32200, 32707, 32412, 32971, 32556, 32429, 32767, 32102, 32227, 32552, 32555, 32720, 32826, 32624, 32858, 32643, 32637, 32699, 32698, 32611, 32317, 32930, 32350, 32859, 32400, 32418, 32416, 32457, 32640, 32540, 32358, 32522, 32869, 32575, 32911, 32459, 32688, 32700, 32830, 32781, 32570, 32546, 32619, 32697, 32329, 32426, 32312, 32452, 32000, 32896, 32646, 32665, 32440, 32703, 32365, 32371, 32560, 32612, 32320, 32627, 32432, 32310, 32330, 32791, 32002, 32360, 32550, 32334, 32630, 32670, 15563, 15938, 15809, 15318, 15178, 15685, 15290, 15979, 15928, 15174, 15670, 15259, 15314, 15186, 15820, 15180, 15883, 15892, 15995, 15578, 15572, 15292, 15864, 15910, 15148, 15965, 15181, 15686, 15258, 15594, 15939, 15165, 15220, 15114, 15108, 15893, 15121, 15851, 15846, 15280, 15315, 15570, 15838, 15887, 15319, 15870, 15298, 15966, 15500, 15866, 15229, 15168, 15218, 15577, 15816, 15824, 15669, 15684, 15614, 15405, 15980, 15948, 15110, 15149, 15151, 15688, 15327, 15118, 15874, 15317, 15845, 15984, 15821, 15818, 15109, 15881, 15949, 15624, 15213, 15520, 15316, 15807, 15144, 15166, 15107, 15142, 15969, 15839, 15810, 15819, 15113, 15238, 15115, 15913, 15885, 15127, 15150, 15185, 15689, 15640, 15541, 15823, 15886, 15890, 15388, 15237, 15863, 15639, 15528, 15808, 15837, 15332, 15660, 15897, 15562, 15124, 15337, 15569, 15210, 15920, 15145, 15805, 15871, 15994, 15176, 15847, 15138, 15990, 15683, 15183, 15635, 15873, 15822, 15287, 15999, 15895, 15128, 15329, 15687, 15300, 15982, 15008, 15848, 15608, 15607, 15199, 15230, 15826, 15817, 15930, 15119, 15390, 15865, 15859, 15147, 15146, 15288, 15102, 15299, 15659, 15590, 15591, 15551, 15656, 15111, 15985, 15595, 15884, 15860, 15912, 15996, 15623, 15613, 15621, 15125, 15609, 15105, 15627, 15295, 15281, 15389, 15129, 15540, 15828, 15123, 15010, 15171, 15250, 15690, 15978, 15882, 15286, 15116, 15550, 15175, 15806, 15896, 15358, 15100, 15914, 15814, 15339, 15360, 15169, 15293, 15967, 15855, 15391, 15009, 15680, 15160, 15139, 15898, 15650, 15350, 15357, 15270, 15198, 15365, 15530, 15112, 15625, 15347, 15622, 15214, 15179, 15313, 15815, 15899, 15130, 15285, 15911, 15560, 15510, 15825, 15173, 15240, 15122, 15968, 15256, 15189, 15937, 15310, 15326, 15981, 15593, 15615, 15597, 15154, 15566, 15187, 15236, 15282, 15862, 15338, 15992, 15582, 15568, 15555, 15297, 15325, 15190, 15366, 15598, 15155, 15379, 15668, 15626, 15215, 15880, 15167, 15106, 15638, 15182, 15616, 15679, 15915, 15565, 15580, 15872, 15959, 15917, 15611, 15983, 15564, 15857, 15612, 15117, 15126, 15212, 15542, 15856, 15291, 15509, 15841, 15960, 15239, 15188, 15800, 15340, 15349, 15216, 15630, 15619, 15359, 15620, 15858, 15993, 15576, 15830, 15991, 15200, 15330, 15141, 15380, 15900, 15553, 15894, 15140, 15172, 15296, 15596, 15940, 15143, 15573, 15211, 15916, 15600, 15320, 15813, 15970, 15617, 15998, 15840, 15480, 15137, 15387, 15386, 15579, 15328, 15152, 15368, 15592, 15561, 15153, 15567, 15324, 15861, 15888, 15369, 15184, 15552, 15367, 15543, 15637, 27730, 27164, 27546, 27437, 27243, 27511, 27297, 27363, 27162, 27773, 27513, 27529, 27248, 27205, 27678, 27578, 27153, 27143, 27813, 27207, 27619, 27843, 27611, 27744, 27677, 27776, 27639, 27113, 27230, 27233, 27579, 27423, 27576, 27662, 27836, 27865, 27204, 27229, 27270, 27466, 27554, 27163, 27259, 27570, 27160, 27235, 27568, 27714, 27689, 27818, 27577, 27379, 27142, 27150, 27279, 27518, 27748, 27294, 27693, 27649, 27832, 27515, 27115, 27460, 27687, 27166, 27168, 27558, 27516, 27519, 27527, 27157, 27419, 27391, 27257, 27371, 27417, 27232, 27178, 27569, 27130, 27631, 27817, 27246, 27367, 27680, 27612, 27421, 27616, 27656, 27341, 27845, 27127, 27790, 27124, 27520, 27412, 27146, 27112, 27258, 27210, 27531, 27640, 27305, 27373, 27514, 27814, 27556, 27191, 27289, 27329, 27792, 27206, 27686, 27617, 27377, 27296, 27722, 27864, 27122, 27425, 27555, 27340, 27372, 27140, 27277, 27867, 27331, 27286, 27135, 27528, 27779, 27422, 27880, 27306, 27328, 27203, 27868, 27651, 27798, 27374, 27177, 27834, 27287, 27648, 27777, 27299, 27182, 27559, 27440, 27634, 27849, 27415, 27335, 27892, 27272, 27208, 27110, 27228, 27550, 27217, 27695, 27658, 27664, 27888, 27190, 27185, 27152, 27610, 27438, 27530, 27213, 27250, 27260, 27188, 27635, 27334, 27332, 27120, 27824, 27671, 27711, 27692, 27151, 27863, 27614, 27666, 27342, 27891, 27618, 27169, 27500, 27418, 27245, 27411, 27544, 27392, 27532, 27596, 27273, 27825, 27181, 27728, 27685, 27131, 27690, 27376, 27815, 27749, 27628, 27548, 27861, 27125, 27679, 27278, 27116, 27215, 27375, 27133, 27796, 27822, 27424, 27676, 27667, 27271, 27269, 27439, 27547, 27345, 27390, 27234, 27540, 27450, 27324, 27738, 27789, 27770, 27211, 27430, 27283, 27615, 27336, 27647, 27325, 27187, 27346, 27145, 27659, 27100, 27698, 27636, 27768, 27780, 27186, 27155, 27344, 27624, 27134, 27220, 27637, 27638, 27123, 27657, 27378, 27840, 27821, 27293, 27890, 27183, 27154, 27300, 27416, 27469, 27623, 27280, 27320, 27347, 27837, 27737, 27307, 27811, 27878, 27774, 27309, 27348, 27339, 27226, 27117, 27632, 27866, 27816, 27512, 27778, 27216, 27688, 27742, 27413, 27266, 27627, 27760, 27751, 27835, 27673, 27625, 27626, 27672, 27247, 27000, 27111, 27850, 27308, 27349, 27276, 27844, 27209, 27549, 27282, 27290, 27240, 27517, 27557, 27533, 27275, 27144, 27833, 27655, 27826, 27740, 27400, 27879, 27128, 27560, 27876, 27592, 27268, 27364, 27184, 27665, 27820, 27510, 27652, 27368, 27192, 27743, 27244, 27650, 27696, 27468, 27212, 27613, 27675, 27414, 27812, 27317, 27893, 27713, 27775, 27156, 27668, 27333, 27256, 27136, 27670, 27200, 27663, 27380, 27410, 27389, 27595, 27318, 27129, 27697, 27420, 27710, 27362, 27330, 27360, 27470, 27720, 27877, 27170, 27132, 27227, 27660, 27370, 27633, 27725, 27726, 27793, 27794, 27747, 27359, 27766, 27700, 27594, 27545, 27310, 27654, 27661, 27715, 27691, 27274, 27795, 27841, 27141, 27369, 27889, 27350, 27338, 27842, 27620, 27786, 27388, 27118, 27787, 27791, 27810, 27785, 27161, 27745, 27830, 27752, 27750, 27600, 27165, 27241, 27590, 27126, 27214, 27653, 27180, 27823, 27298, 27366, 27593, 27591, 27646, 27765, 27267, 27630, 27343, 27231, 27860, 27869, 27721, 27114, 27543, 27699, 27767, 27797, 27800, 27712, 27729, 27727, 27724, 27788, 27694, 27870, 27723, 15554, 15850
  ]
}